info face="MemoGame" size=-46 bold=0 italic=0 charset="" unicode=1 stretchH=100 smooth=1 aa=4 padding=0,0,0,0 spacing=1,1 outline=0
common lineHeight=47 base=27 scaleW=256 scaleH=256 pages=1 packed=0 alphaChnl=0 redChnl=4 greenChnl=4 blueChnl=4
page id=0 file="Zighia46_0.png"
chars count=93
char id=33   x=137   y=0     width=5     height=27    xoffset=0     yoffset=2     xadvance=7     page=0  chnl=15
char id=34   x=34    y=120   width=9     height=10    xoffset=0     yoffset=4     xadvance=11    page=0  chnl=15
char id=35   x=235   y=73    width=16    height=17    xoffset=0     yoffset=10    xadvance=18    page=0  chnl=15
char id=37   x=28    y=32    width=23    height=24    xoffset=0     yoffset=2     xadvance=23    page=0  chnl=15
char id=38   x=155   y=75    width=14    height=18    xoffset=0     yoffset=9     xadvance=16    page=0  chnl=15
char id=39   x=240   y=91    width=8     height=11    xoffset=0     yoffset=3     xadvance=9     page=0  chnl=15
char id=40   x=214   y=50    width=10    height=22    xoffset=0     yoffset=4     xadvance=12    page=0  chnl=15
char id=41   x=203   y=51    width=10    height=22    xoffset=0     yoffset=5     xadvance=11    page=0  chnl=15
char id=42   x=178   y=93    width=14    height=12    xoffset=0     yoffset=3     xadvance=15    page=0  chnl=15
char id=43   x=20    y=103   width=16    height=16    xoffset=0     yoffset=10    xadvance=17    page=0  chnl=15
char id=44   x=44    y=119   width=7     height=10    xoffset=0     yoffset=21    xadvance=9     page=0  chnl=15
char id=45   x=73    y=118   width=15    height=4     xoffset=0     yoffset=16    xadvance=17    page=0  chnl=15
char id=46   x=249   y=91    width=6     height=5     xoffset=0     yoffset=22    xadvance=8     page=0  chnl=15
char id=47   x=130   y=0     width=6     height=27    xoffset=0     yoffset=0     xadvance=8     page=0  chnl=15
char id=48   x=185   y=74    width=13    height=18    xoffset=0     yoffset=8     xadvance=14    page=0  chnl=15
char id=49   x=143   y=75    width=11    height=19    xoffset=0     yoffset=7     xadvance=12    page=0  chnl=15
char id=50   x=99    y=78    width=14    height=19    xoffset=0     yoffset=7     xadvance=15    page=0  chnl=15
char id=51   x=114   y=78    width=14    height=19    xoffset=0     yoffset=7     xadvance=16    page=0  chnl=15
char id=52   x=18    y=82    width=17    height=20    xoffset=0     yoffset=6     xadvance=18    page=0  chnl=15
char id=53   x=36    y=81    width=13    height=20    xoffset=0     yoffset=7     xadvance=15    page=0  chnl=15
char id=54   x=189   y=51    width=13    height=22    xoffset=0     yoffset=5     xadvance=14    page=0  chnl=15
char id=55   x=50    y=81    width=12    height=20    xoffset=0     yoffset=7     xadvance=14    page=0  chnl=15
char id=56   x=82    y=79    width=16    height=19    xoffset=0     yoffset=7     xadvance=17    page=0  chnl=15
char id=57   x=239   y=50    width=14    height=21    xoffset=0     yoffset=5     xadvance=15    page=0  chnl=15
char id=58   x=171   y=93    width=6     height=13    xoffset=0     yoffset=15    xadvance=8     page=0  chnl=15
char id=59   x=12    y=115   width=7     height=17    xoffset=0     yoffset=15    xadvance=9     page=0  chnl=15
char id=61   x=193   y=93    width=21    height=11    xoffset=0     yoffset=13    xadvance=22    page=0  chnl=15
char id=63   x=15    y=32    width=12    height=25    xoffset=0     yoffset=2     xadvance=14    page=0  chnl=15
char id=64   x=54    y=102   width=15    height=16    xoffset=0     yoffset=11    xadvance=17    page=0  chnl=15
char id=65   x=163   y=27    width=16    height=23    xoffset=0     yoffset=4     xadvance=18    page=0  chnl=15
char id=66   x=52    y=32    width=15    height=24    xoffset=0     yoffset=4     xadvance=16    page=0  chnl=15
char id=67   x=58    y=57    width=12    height=23    xoffset=0     yoffset=4     xadvance=14    page=0  chnl=15
char id=68   x=213   y=26    width=15    height=23    xoffset=0     yoffset=4     xadvance=16    page=0  chnl=15
char id=69   x=229   y=26    width=14    height=23    xoffset=0     yoffset=4     xadvance=15    page=0  chnl=15
char id=70   x=45    y=57    width=12    height=23    xoffset=0     yoffset=4     xadvance=13    page=0  chnl=15
char id=71   x=173   y=51    width=15    height=22    xoffset=0     yoffset=4     xadvance=16    page=0  chnl=15
char id=72   x=68    y=31    width=14    height=24    xoffset=0     yoffset=4     xadvance=16    page=0  chnl=15
char id=73   x=233   y=50    width=5     height=22    xoffset=0     yoffset=5     xadvance=7     page=0  chnl=15
char id=74   x=58    y=0     width=14    height=30    xoffset=0     yoffset=4     xadvance=16    page=0  chnl=15
char id=75   x=233   y=0     width=15    height=25    xoffset=0     yoffset=3     xadvance=16    page=0  chnl=15
char id=76   x=244   y=26    width=10    height=23    xoffset=0     yoffset=4     xadvance=11    page=0  chnl=15
char id=77   x=107   y=28    width=19    height=23    xoffset=0     yoffset=5     xadvance=20    page=0  chnl=15
char id=78   x=15    y=58    width=14    height=23    xoffset=0     yoffset=5     xadvance=16    page=0  chnl=15
char id=79   x=0     y=93    width=17    height=21    xoffset=0     yoffset=5     xadvance=19    page=0  chnl=15
char id=80   x=0     y=43    width=14    height=25    xoffset=0     yoffset=3     xadvance=16    page=0  chnl=15
char id=81   x=212   y=0     width=20    height=25    xoffset=0     yoffset=4     xadvance=22    page=0  chnl=15
char id=82   x=0     y=69    width=14    height=23    xoffset=0     yoffset=4     xadvance=15    page=0  chnl=15
char id=83   x=136   y=52    width=19    height=22    xoffset=0     yoffset=5     xadvance=20    page=0  chnl=15
char id=84   x=197   y=27    width=15    height=23    xoffset=0     yoffset=4     xadvance=17    page=0  chnl=15
char id=85   x=156   y=51    width=16    height=22    xoffset=0     yoffset=5     xadvance=17    page=0  chnl=15
char id=86   x=127   y=28    width=17    height=23    xoffset=0     yoffset=4     xadvance=18    page=0  chnl=15
char id=87   x=71    y=56    width=22    height=22    xoffset=0     yoffset=5     xadvance=24    page=0  chnl=15
char id=88   x=94    y=55    width=20    height=22    xoffset=0     yoffset=4     xadvance=21    page=0  chnl=15
char id=89   x=145   y=27    width=17    height=23    xoffset=0     yoffset=4     xadvance=18    page=0  chnl=15
char id=90   x=115   y=52    width=20    height=22    xoffset=0     yoffset=4     xadvance=21    page=0  chnl=15
char id=95   x=52    y=119   width=20    height=4     xoffset=0     yoffset=22    xadvance=22    page=0  chnl=15
char id=97   x=70    y=101   width=14    height=16    xoffset=0     yoffset=10    xadvance=15    page=0  chnl=15
char id=98   x=157   y=0     width=13    height=26    xoffset=0     yoffset=1     xadvance=15    page=0  chnl=15
char id=99   x=143   y=95    width=12    height=15    xoffset=0     yoffset=11    xadvance=14    page=0  chnl=15
char id=100  x=199   y=0     width=12    height=26    xoffset=0     yoffset=1     xadvance=14    page=0  chnl=15
char id=101  x=129   y=75    width=13    height=19    xoffset=0     yoffset=7     xadvance=14    page=0  chnl=15
char id=102  x=119   y=0     width=10    height=27    xoffset=0     yoffset=7     xadvance=11    page=0  chnl=15
char id=103  x=15    y=0     width=14    height=31    xoffset=0     yoffset=11    xadvance=16    page=0  chnl=15
char id=104  x=143   y=0     width=13    height=26    xoffset=0     yoffset=1     xadvance=14    page=0  chnl=15
char id=105  x=225   y=50    width=7     height=22    xoffset=0     yoffset=4     xadvance=9     page=0  chnl=15
char id=106  x=0     y=0     width=14    height=42    xoffset=-9    yoffset=5     xadvance=6     page=0  chnl=15
char id=107  x=104   y=0     width=14    height=27    xoffset=0     yoffset=2     xadvance=15    page=0  chnl=15
char id=108  x=249   y=0     width=5     height=24    xoffset=0     yoffset=3     xadvance=7     page=0  chnl=15
char id=109  x=217   y=73    width=17    height=17    xoffset=0     yoffset=10    xadvance=19    page=0  chnl=15
char id=110  x=99    y=98    width=12    height=16    xoffset=0     yoffset=10    xadvance=13    page=0  chnl=15
char id=111  x=112   y=98    width=16    height=15    xoffset=0     yoffset=12    xadvance=17    page=0  chnl=15
char id=112  x=30    y=0     width=14    height=31    xoffset=0     yoffset=11    xadvance=15    page=0  chnl=15
char id=113  x=45    y=0     width=12    height=31    xoffset=0     yoffset=12    xadvance=14    page=0  chnl=15
char id=114  x=0     y=115   width=11    height=17    xoffset=0     yoffset=9     xadvance=12    page=0  chnl=15
char id=115  x=85    y=99    width=13    height=16    xoffset=0     yoffset=11    xadvance=15    page=0  chnl=15
char id=116  x=89    y=0     width=14    height=27    xoffset=0     yoffset=2     xadvance=15    page=0  chnl=15
char id=117  x=129   y=95    width=13    height=15    xoffset=0     yoffset=11    xadvance=14    page=0  chnl=15
char id=118  x=170   y=74    width=14    height=18    xoffset=0     yoffset=8     xadvance=16    page=0  chnl=15
char id=119  x=199   y=74    width=17    height=17    xoffset=0     yoffset=10    xadvance=18    page=0  chnl=15
char id=120  x=37    y=102   width=16    height=16    xoffset=0     yoffset=11    xadvance=17    page=0  chnl=15
char id=121  x=73    y=0     width=15    height=29    xoffset=0     yoffset=12    xadvance=17    page=0  chnl=15
char id=122  x=156   y=94    width=14    height=14    xoffset=0     yoffset=12    xadvance=15    page=0  chnl=15
char id=176  x=229   y=91    width=10    height=11    xoffset=0     yoffset=2     xadvance=12    page=0  chnl=15
char id=224  x=30    y=57    width=14    height=23    xoffset=0     yoffset=3     xadvance=15    page=0  chnl=15
char id=232  x=171   y=0     width=13    height=26    xoffset=0     yoffset=1     xadvance=14    page=0  chnl=15
char id=233  x=185   y=0     width=13    height=26    xoffset=0     yoffset=1     xadvance=14    page=0  chnl=15
char id=236  x=97    y=28    width=9     height=24    xoffset=0     yoffset=3     xadvance=10    page=0  chnl=15
char id=242  x=180   y=27    width=16    height=23    xoffset=0     yoffset=3     xadvance=17    page=0  chnl=15
char id=249  x=83    y=30    width=13    height=24    xoffset=0     yoffset=3     xadvance=14    page=0  chnl=15
char id=8220 x=20    y=120   width=13    height=10    xoffset=0     yoffset=4     xadvance=23    page=0  chnl=15
char id=8221 x=215   y=92    width=13    height=11    xoffset=0     yoffset=3     xadvance=23    page=0  chnl=15
char id=8364 x=63    y=81    width=18    height=19    xoffset=0     yoffset=7     xadvance=18    page=0  chnl=15
char id=8722 x=89    y=116   width=15    height=4     xoffset=0     yoffset=16    xadvance=23    page=0  chnl=15
